{
    "familyMembers": [
        {
            "name":"Naemi",
            "yearOfBirth": "2011-01-04T15:30:05+01:00",
            "gender": "female"
        },{
            "name":"Alexandra",
            "yearOfBirth": "1980-07-01T15:30:05+01:00",
            "gender": "female"
        },{
            "name":"Noah",
            "yearOfBirth": "2007-03-29T10:31:05+01:00",
            "gender": "male"
        },
        {
            "name": "Joe",
            "yearOfBirth": "1976-04-30T15:30:05+01:00",
            "gender": "male"
        }
    ],
    "animals": [
        {
            "type": "dog",
            "minimumAge": 10
        },
        {
            "type": "cat"
        },
        {
            "type": "dog"
        },
        {
            "type": "cat"
        }
    ]
}